[
    {
        "paymentID": 70001,
        "prNo": "",
        "orNo": 77706,
        "pymtFor": "1st DP",
        "amtPaid": 14000.00,
        "paymentDate": "11-04-2017",
        "penalty": 10,
        "balance": 1234,
        "paidCommission": true
    },
    {
        "paymentID": 70802,
        "prNo": 5433,
        "orNo": 78310,
        "pymtFor": "2nd DP",
        "amtPaid": 14000.00,
        "paymentDate": "12-6-2017",
        "penalty": "",
        "balance": 1234,
        "paidCommission": false
    },
    {
        "paymentID": 77303,
        "prNo": "",
        "orNo": 78723,
        "pymtFor": "3rd DP",
        "amtPaid": 14000.00,
        "paymentDate": "1-8-2018",
        "penalty": 20,
        "balance": 1234,
        "paidCommission": true
    },
    {
        "paymentID": 78400,
        "prNo": 7009,
        "orNo": 79185,
        "pymtFor": "Feb 2018",
        "amtPaid": 8167.00,
        "paymentDate": "2-12-2018",
        "penalty": "",
        "balance": 1234,
        "paidCommission": false
    }
]